03_sim/sim.log
WARNING: ./../00_src/i_mem.sv:29: $readmemh(../02_test/isa_4b.hex): Not enough words in the file for the requested range [0:16383].

PIPELINE - ISA tests

VCD info: dumpfile dump.vcd opened for output.
WARNING: ./../00_src/i_mem.sv:29: $readmemh(../02_test/isa_4b.hex): Not enough words in the file for the requested range [0:16383].
[LSU DATA] Time=2 | q_a=0xxxxxxxxx q_b=0xxxxxxxxx | r_offset=xx r_funct3=xxx | shift=0xxxxxxxxx extend=0x00000000
[LSU DATA] Time=6 | q_a=0xxxxxxxxx q_b=0xxxxxxxxx | r_offset=00 r_funct3=000 | shift=0xxxxxxxxx extend=0xxxxxxxxx
[LSU DATA] Time=10 | q_a=0x00000000 q_b=0x00000000 | r_offset=00 r_funct3=000 | shift=0x00000000 extend=0x00000000
[LSU DATA] Time=14 | q_a=0x00000000 q_b=0x00000000 | r_offset=00 r_funct3=000 | shift=0x00000000 extend=0x00000000
[LSU DATA] Time=18 | q_a=0x00000000 q_b=0x00000000 | r_offset=00 r_funct3=000 | shift=0x00000000 extend=0x00000000
[LSU DATA] Time=22 | q_a=0x00000000 q_b=0x00000000 | r_offset=00 r_funct3=000 | shift=0x00000000 extend=0x00000000
[LSU DATA] Time=26 | q_a=0x00000000 q_b=0x00000000 | r_offset=00 r_funct3=000 | shift=0x00000000 extend=0x00000000
[LSU DATA] Time=30 | q_a=0x00000000 q_b=0x00000000 | r_offset=00 r_funct3=000 | shift=0x00000000 extend=0x00000000
[LSU DATA] Time=34 | q_a=0x00000000 q_b=0x00000000 | r_offset=00 r_funct3=000 | shift=0x00000000 extend=0x00000000
[LSU DATA] Time=38 | q_a=0x00000000 q_b=0x00000000 | r_offset=00 r_funct3=000 | shift=0x00000000 extend=0x00000000
[LSU DATA] Time=42 | q_a=0x00000000 q_b=0x00000000 | r_offset=00 r_funct3=000 | shift=0x00000000 extend=0x00000000
[LSU DATA] Time=46 | q_a=0x00000000 q_b=0x00000000 | r_offset=00 r_funct3=000 | shift=0x00000000 extend=0x00000000
[LSU DATA] Time=50 | q_a=0x00000000 q_b=0x00000000 | r_offset=00 r_funct3=000 | shift=0x00000000 extend=0x00000000
[LSU DATA] Time=54 | q_a=0x00000000 q_b=0x00000000 | r_offset=00 r_funct3=000 | shift=0x00000000 extend=0x00000000
[LSU DATA] Time=58 | q_a=0x00000000 q_b=0x00000000 | r_offset=00 r_funct3=000 | shift=0x00000000 extend=0x00000000
[LSU LOAD] Time=62 | Addr=0x00000000 offset=00 funct3=000 | NEXT CYCLE r_offset=00 r_funct3=000
[LSU DATA] Time=62 | q_a=0x00000000 q_b=0x00000000 | r_offset=00 r_funct3=000 | shift=0x00000000 extend=0x00000000
[LSU LOAD] Time=66 | Addr=0x00007000 offset=00 funct3=111 | NEXT CYCLE r_offset=00 r_funct3=111
[LSU DATA] Time=66 | q_a=0x00000000 q_b=0x00000000 | r_offset=00 r_funct3=000 | shift=0x00000000 extend=0x00000000
[LSU LOAD] Time=70 | Addr=0x00007000 offset=00 funct3=111 | NEXT CYCLE r_offset=00 r_funct3=111
[LSU DATA] Time=70 | q_a=0x00000000 q_b=0x00000000 | r_offset=00 r_funct3=111 | shift=0x00000000 extend=0x00000000
[LSU LOAD] Time=74 | Addr=0x00007000 offset=00 funct3=000 | NEXT CYCLE r_offset=00 r_funct3=000
[LSU DATA] Time=74 | q_a=0x00000000 q_b=0x00000000 | r_offset=00 r_funct3=111 | shift=0x00000000 extend=0x00000000
[LSU LOAD] Time=78 | Addr=0x0000000c offset=00 funct3=000 | NEXT CYCLE r_offset=00 r_funct3=000
[LSU DATA] Time=78 | q_a=0x00000000 q_b=0x00000000 | r_offset=00 r_funct3=000 | shift=0x00000000 extend=0x00000000
[LSU LOAD] Time=82 | Addr=0x00000000 offset=00 funct3=000 | NEXT CYCLE r_offset=00 r_funct3=000
[LSU DATA] Time=82 | q_a=0x00000000 q_b=0x00000000 | r_offset=00 r_funct3=000 | shift=0x00000000 extend=0x00000000
[LSU LOAD] Time=86 | Addr=0x000000d8 offset=00 funct3=000 | NEXT CYCLE r_offset=00 r_funct3=000
[LSU DATA] Time=86 | q_a=0x00000000 q_b=0x00000000 | r_offset=00 r_funct3=000 | shift=0x00000000 extend=0x00000000
[LSU LOAD] Time=90 | Addr=0x00000000 offset=00 funct3=000 | NEXT CYCLE r_offset=00 r_funct3=000
[LSU DATA] Time=90 | q_a=0x00000000 q_b=0x00000000 | r_offset=00 r_funct3=000 | shift=0x00000000 extend=0x00000000
[LSU DATA] Time=94 | q_a=0x00000000 q_b=0x00000000 | r_offset=00 r_funct3=000 | shift=0x00000000 extend=0x00000000
[LSU LOAD] Time=98 | Addr=0x00000061 offset=01 funct3=000 | NEXT CYCLE r_offset=01 r_funct3=000
[LSU DATA] Time=98 | q_a=0x00000000 q_b=0x00000000 | r_offset=00 r_funct3=000 | shift=0x00000000 extend=0x00000000
[LSU LOAD] Time=102 | Addr=0x00000180 offset=00 funct3=111 | NEXT CYCLE r_offset=00 r_funct3=111
[LSU DATA] Time=102 | q_a=0x00000000 q_b=0x00000000 | r_offset=01 r_funct3=000 | shift=0x00000000 extend=0x00000000
[LSU LOAD] Time=106 | Addr=0x00000000 offset=00 funct3=000 | NEXT CYCLE r_offset=00 r_funct3=000
[LSU DATA] Time=106 | q_a=0x00000000 q_b=0x00000000 | r_offset=00 r_funct3=111 | shift=0x00000000 extend=0x00000000
[LSU LOAD] Time=110 | Addr=0x10000000 offset=00 funct3=000 | NEXT CYCLE r_offset=00 r_funct3=000
[LSU DATA] Time=110 | q_a=0x00000000 q_b=0x00000000 | r_offset=00 r_funct3=000 | shift=0x00000000 extend=0x00000000
[LSU LOAD] Time=114 | Addr=0x10000000 offset=00 funct3=000 | NEXT CYCLE r_offset=00 r_funct3=000
[LSU DATA] Time=114 | q_a=0x00000000 q_b=0x00000000 | r_offset=00 r_funct3=000 | shift=0x00000000 extend=0x00000000
[LSU DATA] Time=118 | q_a=0x00000000 q_b=0x00000000 | r_offset=00 r_funct3=000 | shift=0x00000000 extend=0x00000000
[LSU LOAD] Time=122 | Addr=0x0000001c offset=00 funct3=000 | NEXT CYCLE r_offset=00 r_funct3=000
[LSU DATA] Time=122 | q_a=0x00000000 q_b=0x00000000 | r_offset=00 r_funct3=000 | shift=0x00000000 extend=0x00000000
a[LSU LOAD] Time=126 | Addr=0x00000000 offset=00 funct3=000 | NEXT CYCLE r_offset=00 r_funct3=000
[LSU DATA] Time=126 | q_a=0x00000000 q_b=0x00000000 | r_offset=00 r_funct3=000 | shift=0x00000000 extend=0x00000000
[LSU LOAD] Time=130 | Addr=0x00000064 offset=00 funct3=000 | NEXT CYCLE r_offset=00 r_funct3=000
[LSU DATA] Time=130 | q_a=0x00000000 q_b=0x00000000 | r_offset=00 r_funct3=000 | shift=0x00000000 extend=0x00000000
[LSU LOAD] Time=134 | Addr=0x00000188 offset=00 funct3=111 | NEXT CYCLE r_offset=00 r_funct3=111
[LSU DATA] Time=134 | q_a=0x00000000 q_b=0x00000000 | r_offset=00 r_funct3=000 | shift=0x00000000 extend=0x00000000
[LSU LOAD] Time=138 | Addr=0x00000000 offset=00 funct3=000 | NEXT CYCLE r_offset=00 r_funct3=000
[LSU DATA] Time=138 | q_a=0x00000000 q_b=0x00000000 | r_offset=00 r_funct3=111 | shift=0x00000000 extend=0x00000000
[LSU LOAD] Time=142 | Addr=0x10000000 offset=00 funct3=000 | NEXT CYCLE r_offset=00 r_funct3=000
[LSU DATA] Time=142 | q_a=0x00000000 q_b=0x00000000 | r_offset=00 r_funct3=000 | shift=0x00000000 extend=0x00000000
[LSU LOAD] Time=146 | Addr=0x10000000 offset=00 funct3=000 | NEXT CYCLE r_offset=00 r_funct3=000
[LSU DATA] Time=146 | q_a=0x00000000 q_b=0x00000000 | r_offset=00 r_funct3=000 | shift=0x00000000 extend=0x00000000
[LSU DATA] Time=150 | q_a=0x00000000 q_b=0x00000000 | r_offset=00 r_funct3=000 | shift=0x00000000 extend=0x00000000
[LSU LOAD] Time=154 | Addr=0x0000001c offset=00 funct3=000 | NEXT CYCLE r_offset=00 r_funct3=000
[LSU DATA] Time=154 | q_a=0x00000000 q_b=0x00000000 | r_offset=00 r_funct3=000 | shift=0x00000000 extend=0x00000000
d[LSU LOAD] Time=158 | Addr=0x00000000 offset=00 funct3=000 | NEXT CYCLE r_offset=00 r_funct3=000
[LSU DATA] Time=158 | q_a=0x00000000 q_b=0x00000000 | r_offset=00 r_funct3=000 | shift=0x00000000 extend=0x00000000
[LSU LOAD] Time=162 | Addr=0x00000064 offset=00 funct3=000 | NEXT CYCLE r_offset=00 r_funct3=000
[LSU DATA] Time=162 | q_a=0x00000000 q_b=0x00000000 | r_offset=00 r_funct3=000 | shift=0x00000000 extend=0x00000000
[LSU LOAD] Time=166 | Addr=0x00000190 offset=00 funct3=111 | NEXT CYCLE r_offset=00 r_funct3=111
[LSU DATA] Time=166 | q_a=0x00000000 q_b=0x00000000 | r_offset=00 r_funct3=000 | shift=0x00000000 extend=0x00000000
[LSU LOAD] Time=170 | Addr=0x00000000 offset=00 funct3=000 | NEXT CYCLE r_offset=00 r_funct3=000
[LSU DATA] Time=170 | q_a=0x00000000 q_b=0x00000000 | r_offset=00 r_funct3=111 | shift=0x00000000 extend=0x00000000
[LSU LOAD] Time=174 | Addr=0x10000000 offset=00 funct3=000 | NEXT CYCLE r_offset=00 r_funct3=000
[LSU DATA] Time=174 | q_a=0x00000000 q_b=0x00000000 | r_offset=00 r_funct3=000 | shift=0x00000000 extend=0x00000000
[LSU LOAD] Time=178 | Addr=0x10000000 offset=00 funct3=000 | NEXT CYCLE r_offset=00 r_funct3=000
[LSU DATA] Time=178 | q_a=0x00000000 q_b=0x00000000 | r_offset=00 r_funct3=000 | shift=0x00000000 extend=0x00000000
[LSU DATA] Time=182 | q_a=0x00000000 q_b=0x00000000 | r_offset=00 r_funct3=000 | shift=0x00000000 extend=0x00000000
[LSU LOAD] Time=186 | Addr=0x0000001c offset=00 funct3=000 | NEXT CYCLE r_offset=00 r_funct3=000
[LSU DATA] Time=186 | q_a=0x00000000 q_b=0x00000000 | r_offset=00 r_funct3=000 | shift=0x00000000 extend=0x00000000
d[LSU LOAD] Time=190 | Addr=0x00000000 offset=00 funct3=000 | NEXT CYCLE r_offset=00 r_funct3=000
[LSU DATA] Time=190 | q_a=0x00000000 q_b=0x00000000 | r_offset=00 r_funct3=000 | shift=0x00000000 extend=0x00000000
[LSU LOAD] Time=194 | Addr=0x0000002e offset=10 funct3=000 | NEXT CYCLE r_offset=10 r_funct3=000
[LSU DATA] Time=194 | q_a=0x00000000 q_b=0x00000000 | r_offset=00 r_funct3=000 | shift=0x00000000 extend=0x00000000
[LSU LOAD] Time=198 | Addr=0x00000198 offset=00 funct3=111 | NEXT CYCLE r_offset=00 r_funct3=111
[LSU DATA] Time=198 | q_a=0x00000000 q_b=0x00000000 | r_offset=10 r_funct3=000 | shift=0x00000000 extend=0x00000000
[LSU LOAD] Time=202 | Addr=0x00000000 offset=00 funct3=000 | NEXT CYCLE r_offset=00 r_funct3=000
[LSU DATA] Time=202 | q_a=0x00000000 q_b=0x00000000 | r_offset=00 r_funct3=111 | shift=0x00000000 extend=0x00000000
[LSU LOAD] Time=206 | Addr=0x10000000 offset=00 funct3=000 | NEXT CYCLE r_offset=00 r_funct3=000
[LSU DATA] Time=206 | q_a=0x00000000 q_b=0x00000000 | r_offset=00 r_funct3=000 | shift=0x00000000 extend=0x00000000
[LSU LOAD] Time=210 | Addr=0x10000000 offset=00 funct3=000 | NEXT CYCLE r_offset=00 r_funct3=000
[LSU DATA] Time=210 | q_a=0x00000000 q_b=0x00000000 | r_offset=00 r_funct3=000 | shift=0x00000000 extend=0x00000000
[LSU DATA] Time=214 | q_a=0x00000000 q_b=0x00000000 | r_offset=00 r_funct3=000 | shift=0x00000000 extend=0x00000000
[LSU LOAD] Time=218 | Addr=0x0000001c offset=00 funct3=000 | NEXT CYCLE r_offset=00 r_funct3=000
[LSU DATA] Time=218 | q_a=0x00000000 q_b=0x00000000 | r_offset=00 r_funct3=000 | shift=0x00000000 extend=0x00000000
.[LSU LOAD] Time=222 | Addr=0x00000000 offset=00 funct3=000 | NEXT CYCLE r_offset=00 r_funct3=000
[LSU DATA] Time=222 | q_a=0x00000000 q_b=0x00000000 | r_offset=00 r_funct3=000 | shift=0x00000000 extend=0x00000000
[LSU LOAD] Time=226 | Addr=0x0000002e offset=10 funct3=000 | NEXT CYCLE r_offset=10 r_funct3=000
[LSU DATA] Time=226 | q_a=0x00000000 q_b=0x00000000 | r_offset=00 r_funct3=000 | shift=0x00000000 extend=0x00000000
[LSU LOAD] Time=230 | Addr=0x000001a0 offset=00 funct3=111 | NEXT CYCLE r_offset=00 r_funct3=111
[LSU DATA] Time=230 | q_a=0x00000000 q_b=0x00000000 | r_offset=10 r_funct3=000 | shift=0x00000000 extend=0x00000000
[LSU LOAD] Time=234 | Addr=0x00000000 offset=00 funct3=000 | NEXT CYCLE r_offset=00 r_funct3=000
[LSU DATA] Time=234 | q_a=0x00000000 q_b=0x00000000 | r_offset=00 r_funct3=111 | shift=0x00000000 extend=0x00000000
[LSU LOAD] Time=238 | Addr=0x10000000 offset=00 funct3=000 | NEXT CYCLE r_offset=00 r_funct3=000
[LSU DATA] Time=238 | q_a=0x00000000 q_b=0x00000000 | r_offset=00 r_funct3=000 | shift=0x00000000 extend=0x00000000
[LSU LOAD] Time=242 | Addr=0x10000000 offset=00 funct3=000 | NEXT CYCLE r_offset=00 r_funct3=000
[LSU DATA] Time=242 | q_a=0x00000000 q_b=0x00000000 | r_offset=00 r_funct3=000 | shift=0x00000000 extend=0x00000000
[LSU DATA] Time=246 | q_a=0x00000000 q_b=0x00000000 | r_offset=00 r_funct3=000 | shift=0x00000000 extend=0x00000000
[LSU LOAD] Time=250 | Addr=0x0000001c offset=00 funct3=000 | NEXT CYCLE r_offset=00 r_funct3=000
[LSU DATA] Time=250 | q_a=0x00000000 q_b=0x00000000 | r_offset=00 r_funct3=000 | shift=0x00000000 extend=0x00000000
.[LSU LOAD] Time=254 | Addr=0x00000000 offset=00 funct3=000 | NEXT CYCLE r_offset=00 r_funct3=000
[LSU DATA] Time=254 | q_a=0x00000000 q_b=0x00000000 | r_offset=00 r_funct3=000 | shift=0x00000000 extend=0x00000000
[LSU LOAD] Time=258 | Addr=0x0000002e offset=10 funct3=000 | NEXT CYCLE r_offset=10 r_funct3=000
[LSU DATA] Time=258 | q_a=0x00000000 q_b=0x00000000 | r_offset=00 r_funct3=000 | shift=0x00000000 extend=0x00000000
[LSU LOAD] Time=262 | Addr=0x000001a8 offset=00 funct3=111 | NEXT CYCLE r_offset=00 r_funct3=111
[LSU DATA] Time=262 | q_a=0x00000000 q_b=0x00000000 | r_offset=10 r_funct3=000 | shift=0x00000000 extend=0x00000000
[LSU LOAD] Time=266 | Addr=0x00000000 offset=00 funct3=000 | NEXT CYCLE r_offset=00 r_funct3=000
[LSU DATA] Time=266 | q_a=0x00000000 q_b=0x00000000 | r_offset=00 r_funct3=111 | shift=0x00000000 extend=0x00000000
[LSU LOAD] Time=270 | Addr=0x10000000 offset=00 funct3=000 | NEXT CYCLE r_offset=00 r_funct3=000
[LSU DATA] Time=270 | q_a=0x00000000 q_b=0x00000000 | r_offset=00 r_funct3=000 | shift=0x00000000 extend=0x00000000
[LSU LOAD] Time=274 | Addr=0x10000000 offset=00 funct3=000 | NEXT CYCLE r_offset=00 r_funct3=000
[LSU DATA] Time=274 | q_a=0x00000000 q_b=0x00000000 | r_offset=00 r_funct3=000 | shift=0x00000000 extend=0x00000000
[LSU DATA] Time=278 | q_a=0x00000000 q_b=0x00000000 | r_offset=00 r_funct3=000 | shift=0x00000000 extend=0x00000000
[LSU LOAD] Time=282 | Addr=0x0000001c offset=00 funct3=000 | NEXT CYCLE r_offset=00 r_funct3=000
[LSU DATA] Time=282 | q_a=0x00000000 q_b=0x00000000 | r_offset=00 r_funct3=000 | shift=0x00000000 extend=0x00000000
.[LSU LOAD] Time=286 | Addr=0x00000000 offset=00 funct3=000 | NEXT CYCLE r_offset=00 r_funct3=000
[LSU DATA] Time=286 | q_a=0x00000000 q_b=0x00000000 | r_offset=00 r_funct3=000 | shift=0x00000000 extend=0x00000000
[LSU LOAD] Time=290 | Addr=0x00000000 offset=00 funct3=000 | NEXT CYCLE r_offset=00 r_funct3=000
[LSU DATA] Time=290 | q_a=0x00000000 q_b=0x00000000 | r_offset=00 r_funct3=000 | shift=0x00000000 extend=0x00000000
[LSU LOAD] Time=294 | Addr=0x00000000 offset=00 funct3=000 | NEXT CYCLE r_offset=00 r_funct3=000
[LSU DATA] Time=294 | q_a=0x00000000 q_b=0x00000000 | r_offset=00 r_funct3=000 | shift=0x00000000 extend=0x00000000
[LSU LOAD] Time=298 | Addr=0x00000000 offset=00 funct3=000 | NEXT CYCLE r_offset=00 r_funct3=000
[LSU DATA] Time=298 | q_a=0x00000000 q_b=0x00000000 | r_offset=00 r_funct3=000 | shift=0x00000000 extend=0x00000000
[LSU LOAD] Time=302 | Addr=0x00000000 offset=00 funct3=000 | NEXT CYCLE r_offset=00 r_funct3=000
[LSU DATA] Time=302 | q_a=0x00000000 q_b=0x00000000 | r_offset=00 r_funct3=000 | shift=0x00000000 extend=0x00000000
[LSU DATA] Time=306 | q_a=0x00000000 q_b=0x00000000 | r_offset=00 r_funct3=000 | shift=0x00000000 extend=0x00000000
[LSU LOAD] Time=310 | Addr=0x00000248 offset=00 funct3=001 | NEXT CYCLE r_offset=00 r_funct3=001
[LSU DATA] Time=310 | q_a=0x00000000 q_b=0x00000000 | r_offset=00 r_funct3=000 | shift=0x00000000 extend=0x00000000
[LSU LOAD] Time=314 | Addr=0x00000002 offset=10 funct3=000 | NEXT CYCLE r_offset=10 r_funct3=000
[LSU DATA] Time=314 | q_a=0x00000000 q_b=0x00000000 | r_offset=00 r_funct3=001 | shift=0x00000000 extend=0x00000000
[LSU LOAD] Time=318 | Addr=0x00000002 offset=10 funct3=000 | NEXT CYCLE r_offset=10 r_funct3=000
[LSU DATA] Time=318 | q_a=0x00000000 q_b=0x00000000 | r_offset=10 r_funct3=000 | shift=0x00000000 extend=0x00000000
[LSU LOAD] Time=322 | Addr=0x00000008 offset=00 funct3=000 | NEXT CYCLE r_offset=00 r_funct3=000
[LSU DATA] Time=322 | q_a=0x00000000 q_b=0x00000000 | r_offset=10 r_funct3=000 | shift=0x00000000 extend=0x00000000
[LSU LOAD] Time=326 | Addr=0x0000000a offset=10 funct3=000 | NEXT CYCLE r_offset=10 r_funct3=000
[LSU DATA] Time=326 | q_a=0x00000000 q_b=0x00000000 | r_offset=00 r_funct3=000 | shift=0x00000000 extend=0x00000000
[LSU DATA] Time=330 | q_a=0x00000000 q_b=0x00000000 | r_offset=10 r_funct3=000 | shift=0x00000000 extend=0x00000000
[LSU LOAD] Time=334 | Addr=0x00000248 offset=00 funct3=001 | NEXT CYCLE r_offset=00 r_funct3=001
[LSU DATA] Time=334 | q_a=0x00000000 q_b=0x00000000 | r_offset=10 r_funct3=000 | shift=0x00000000 extend=0x00000000
[LSU LOAD] Time=338 | Addr=0x00000000 offset=00 funct3=000 | NEXT CYCLE r_offset=00 r_funct3=000
[LSU DATA] Time=338 | q_a=0x00000000 q_b=0x00000000 | r_offset=00 r_funct3=001 | shift=0x00000000 extend=0x00000000
[LSU LOAD] Time=342 | Addr=0x0000024c offset=00 funct3=111 | NEXT CYCLE r_offset=00 r_funct3=111
[LSU DATA] Time=342 | q_a=0x00000000 q_b=0x00000000 | r_offset=00 r_funct3=000 | shift=0x00000000 extend=0x00000000
[LSU LOAD] Time=346 | Addr=0x00000000 offset=00 funct3=000 | NEXT CYCLE r_offset=00 r_funct3=000
[LSU DATA] Time=346 | q_a=0x00000000 q_b=0x00000000 | r_offset=00 r_funct3=111 | shift=0x00000000 extend=0x00000000
[LSU DATA] Time=350 | q_a=0x00000000 q_b=0x00000000 | r_offset=00 r_funct3=000 | shift=0x00000000 extend=0x00000000
[LSU LOAD] Time=354 | Addr=0x0000002e offset=10 funct3=000 | NEXT CYCLE r_offset=10 r_funct3=000
[LSU DATA] Time=354 | q_a=0x00000000 q_b=0x000000d8 | r_offset=00 r_funct3=000 | shift=0x00000000 extend=0x00000000
[LSU LOAD] Time=358 | Addr=0x00000084 offset=00 funct3=111 | NEXT CYCLE r_offset=00 r_funct3=111
[LSU DATA] Time=358 | q_a=0x00000000 q_b=0x00000000 | r_offset=10 r_funct3=000 | shift=0x00000000 extend=0x00000000
[LSU LOAD] Time=362 | Addr=0x00000000 offset=00 funct3=000 | NEXT CYCLE r_offset=00 r_funct3=000
[LSU DATA] Time=362 | q_a=0x00000000 q_b=0x00000000 | r_offset=00 r_funct3=111 | shift=0x00000000 extend=0x00000000
[LSU LOAD] Time=366 | Addr=0x10000000 offset=00 funct3=000 | NEXT CYCLE r_offset=00 r_funct3=000
[LSU DATA] Time=366 | q_a=0x00000000 q_b=0x00000000 | r_offset=00 r_funct3=000 | shift=0x00000000 extend=0x00000000
[LSU LOAD] Time=370 | Addr=0x10000000 offset=00 funct3=000 | NEXT CYCLE r_offset=00 r_funct3=000
[LSU DATA] Time=370 | q_a=0x00000000 q_b=0x00000000 | r_offset=00 r_funct3=000 | shift=0x00000000 extend=0x00000000
[LSU DATA] Time=374 | q_a=0x00000000 q_b=0x00000000 | r_offset=00 r_funct3=000 | shift=0x00000000 extend=0x00000000
[LSU LOAD] Time=378 | Addr=0x0000001c offset=00 funct3=000 | NEXT CYCLE r_offset=00 r_funct3=000
[LSU DATA] Time=378 | q_a=0x00000000 q_b=0x00000000 | r_offset=00 r_funct3=000 | shift=0x00000000 extend=0x00000000
.[LSU LOAD] Time=382 | Addr=0x00000000 offset=00 funct3=000 | NEXT CYCLE r_offset=00 r_funct3=000
[LSU DATA] Time=382 | q_a=0x00000000 q_b=0x00000000 | r_offset=00 r_funct3=000 | shift=0x00000000 extend=0x00000000
[LSU LOAD] Time=386 | Addr=0x0000002e offset=10 funct3=000 | NEXT CYCLE r_offset=10 r_funct3=000
[LSU DATA] Time=386 | q_a=0x00000000 q_b=0x00000000 | r_offset=00 r_funct3=000 | shift=0x00000000 extend=0x00000000
[LSU LOAD] Time=390 | Addr=0x0000008c offset=00 funct3=111 | NEXT CYCLE r_offset=00 r_funct3=111
[LSU DATA] Time=390 | q_a=0x00000000 q_b=0x00000000 | r_offset=10 r_funct3=000 | shift=0x00000000 extend=0x00000000
[LSU LOAD] Time=394 | Addr=0x00000000 offset=00 funct3=000 | NEXT CYCLE r_offset=00 r_funct3=000
[LSU DATA] Time=394 | q_a=0x00000000 q_b=0x00000000 | r_offset=00 r_funct3=111 | shift=0x00000000 extend=0x00000000
[LSU LOAD] Time=398 | Addr=0x10000000 offset=00 funct3=000 | NEXT CYCLE r_offset=00 r_funct3=000
[LSU DATA] Time=398 | q_a=0x00000000 q_b=0x00000000 | r_offset=00 r_funct3=000 | shift=0x00000000 extend=0x00000000
[LSU LOAD] Time=402 | Addr=0x10000000 offset=00 funct3=000 | NEXT CYCLE r_offset=00 r_funct3=000
[LSU DATA] Time=402 | q_a=0x00000000 q_b=0x00000000 | r_offset=00 r_funct3=000 | shift=0x00000000 extend=0x00000000
[LSU DATA] Time=406 | q_a=0x00000000 q_b=0x00000000 | r_offset=00 r_funct3=000 | shift=0x00000000 extend=0x00000000
[LSU LOAD] Time=410 | Addr=0x0000001c offset=00 funct3=000 | NEXT CYCLE r_offset=00 r_funct3=000
[LSU DATA] Time=410 | q_a=0x00000000 q_b=0x00000000 | r_offset=00 r_funct3=000 | shift=0x00000000 extend=0x00000000
.[LSU LOAD] Time=414 | Addr=0x00000000 offset=00 funct3=000 | NEXT CYCLE r_offset=00 r_funct3=000
[LSU DATA] Time=414 | q_a=0x00000000 q_b=0x00000000 | r_offset=00 r_funct3=000 | shift=0x00000000 extend=0x00000000
[LSU LOAD] Time=418 | Addr=0x0000002e offset=10 funct3=000 | NEXT CYCLE r_offset=10 r_funct3=000
[LSU DATA] Time=418 | q_a=0x00000000 q_b=0x00000000 | r_offset=00 r_funct3=000 | shift=0x00000000 extend=0x00000000
[LSU LOAD] Time=422 | Addr=0x00000094 offset=00 funct3=111 | NEXT CYCLE r_offset=00 r_funct3=111
[LSU DATA] Time=422 | q_a=0x00000000 q_b=0x00000000 | r_offset=10 r_funct3=000 | shift=0x00000000 extend=0x00000000
[LSU LOAD] Time=426 | Addr=0x00000000 offset=00 funct3=000 | NEXT CYCLE r_offset=00 r_funct3=000
[LSU DATA] Time=426 | q_a=0x00000000 q_b=0x00000000 | r_offset=00 r_funct3=111 | shift=0x00000000 extend=0x00000000
[LSU LOAD] Time=430 | Addr=0x10000000 offset=00 funct3=000 | NEXT CYCLE r_offset=00 r_funct3=000
[LSU DATA] Time=430 | q_a=0x00000000 q_b=0x00000000 | r_offset=00 r_funct3=000 | shift=0x00000000 extend=0x00000000
[LSU LOAD] Time=434 | Addr=0x10000000 offset=00 funct3=000 | NEXT CYCLE r_offset=00 r_funct3=000
[LSU DATA] Time=434 | q_a=0x00000000 q_b=0x00000000 | r_offset=00 r_funct3=000 | shift=0x00000000 extend=0x00000000
[LSU DATA] Time=438 | q_a=0x00000000 q_b=0x00000000 | r_offset=00 r_funct3=000 | shift=0x00000000 extend=0x00000000
[LSU LOAD] Time=442 | Addr=0x0000001c offset=00 funct3=000 | NEXT CYCLE r_offset=00 r_funct3=000
[LSU DATA] Time=442 | q_a=0x00000000 q_b=0x00000000 | r_offset=00 r_funct3=000 | shift=0x00000000 extend=0x00000000
.[LSU LOAD] Time=446 | Addr=0x00000000 offset=00 funct3=000 | NEXT CYCLE r_offset=00 r_funct3=000
[LSU DATA] Time=446 | q_a=0x00000000 q_b=0x00000000 | r_offset=00 r_funct3=000 | shift=0x00000000 extend=0x00000000
[LSU LOAD] Time=450 | Addr=0x00000045 offset=01 funct3=000 | NEXT CYCLE r_offset=01 r_funct3=000
[LSU DATA] Time=450 | q_a=0x00000000 q_b=0x00000000 | r_offset=00 r_funct3=000 | shift=0x00000000 extend=0x00000000
[LSU LOAD] Time=454 | Addr=0x0000009c offset=00 funct3=111 | NEXT CYCLE r_offset=00 r_funct3=111
[LSU DATA] Time=454 | q_a=0x00000000 q_b=0x00000000 | r_offset=01 r_funct3=000 | shift=0x00000000 extend=0x00000000
[LSU LOAD] Time=458 | Addr=0x00000000 offset=00 funct3=000 | NEXT CYCLE r_offset=00 r_funct3=000
[LSU DATA] Time=458 | q_a=0x00000000 q_b=0x00000000 | r_offset=00 r_funct3=111 | shift=0x00000000 extend=0x00000000
[LSU LOAD] Time=462 | Addr=0x10000000 offset=00 funct3=000 | NEXT CYCLE r_offset=00 r_funct3=000
[LSU DATA] Time=462 | q_a=0x00000000 q_b=0x00000000 | r_offset=00 r_funct3=000 | shift=0x00000000 extend=0x00000000
[LSU LOAD] Time=466 | Addr=0x10000000 offset=00 funct3=000 | NEXT CYCLE r_offset=00 r_funct3=000
[LSU DATA] Time=466 | q_a=0x00000000 q_b=0x00000000 | r_offset=00 r_funct3=000 | shift=0x00000000 extend=0x00000000
[LSU DATA] Time=470 | q_a=0x00000000 q_b=0x00000000 | r_offset=00 r_funct3=000 | shift=0x00000000 extend=0x00000000
[LSU LOAD] Time=474 | Addr=0x0000001c offset=00 funct3=000 | NEXT CYCLE r_offset=00 r_funct3=000
[LSU DATA] Time=474 | q_a=0x00000000 q_b=0x00000000 | r_offset=00 r_funct3=000 | shift=0x00000000 extend=0x00000000
E[LSU LOAD] Time=478 | Addr=0x00000000 offset=00 funct3=000 | NEXT CYCLE r_offset=00 r_funct3=000
[LSU DATA] Time=478 | q_a=0x00000000 q_b=0x00000000 | r_offset=00 r_funct3=000 | shift=0x00000000 extend=0x00000000
[LSU LOAD] Time=482 | Addr=0x00000052 offset=10 funct3=000 | NEXT CYCLE r_offset=10 r_funct3=000
[LSU DATA] Time=482 | q_a=0x00000000 q_b=0x00000000 | r_offset=00 r_funct3=000 | shift=0x00000000 extend=0x00000000
[LSU LOAD] Time=486 | Addr=0x000000a4 offset=00 funct3=111 | NEXT CYCLE r_offset=00 r_funct3=111
[LSU DATA] Time=486 | q_a=0x00000000 q_b=0x00000000 | r_offset=10 r_funct3=000 | shift=0x00000000 extend=0x00000000
[LSU LOAD] Time=490 | Addr=0x00000000 offset=00 funct3=000 | NEXT CYCLE r_offset=00 r_funct3=000
[LSU DATA] Time=490 | q_a=0x00000000 q_b=0x00000000 | r_offset=00 r_funct3=111 | shift=0x00000000 extend=0x00000000
[LSU LOAD] Time=494 | Addr=0x10000000 offset=00 funct3=000 | NEXT CYCLE r_offset=00 r_funct3=000
[LSU DATA] Time=494 | q_a=0x00000000 q_b=0x00000000 | r_offset=00 r_funct3=000 | shift=0x00000000 extend=0x00000000
[LSU LOAD] Time=498 | Addr=0x10000000 offset=00 funct3=000 | NEXT CYCLE r_offset=00 r_funct3=000
[LSU DATA] Time=498 | q_a=0x00000000 q_b=0x00000000 | r_offset=00 r_funct3=000 | shift=0x00000000 extend=0x00000000
[LSU DATA] Time=502 | q_a=0x00000000 q_b=0x00000000 | r_offset=00 r_funct3=000 | shift=0x00000000 extend=0x00000000
[LSU LOAD] Time=506 | Addr=0x0000001c offset=00 funct3=000 | NEXT CYCLE r_offset=00 r_funct3=000
[LSU DATA] Time=506 | q_a=0x00000000 q_b=0x00000000 | r_offset=00 r_funct3=000 | shift=0x00000000 extend=0x00000000
R[LSU LOAD] Time=510 | Addr=0x00000000 offset=00 funct3=000 | NEXT CYCLE r_offset=00 r_funct3=000
